{
  "project_info": {
    "project_number": "147749855569",
    "firebase_url": "https://polarbear-87643.firebaseio.com",
    "project_id": "polarbear-87643",
    "storage_bucket": "polarbear-87643.appspot.com"
  },
  "client": [
    {
      "client_info": {
        "mobilesdk_app_id": "1:147749855569:android:36ebb0f2719c0270",
        "android_client_info": {
          "package_name": "com.example.polarbear"
        }
      },
      "oauth_client": [
        {
          "client_id": "147749855569-020nhpc7o7tijpod5mk0pttl9dlf9704.apps.googleusercontent.com",
          "client_type": 1,
          "android_info": {
            "package_name": "com.example.polarbear",
            "certificate_hash": "0f3a4ce6697d617cf18f9db55c25531b7f7ec7fb"
          }
        },
        {
          "client_id": "147749855569-fpg9pu9jr811nn9rt8ud0a4sgq7kc2i4.apps.googleusercontent.com",
          "client_type": 3
        }
      ],
      "api_key": [
        {
          "current_key": "AIzaSyCzohPYNenVNN7AItMqCzwm5w4Koc7YGP8"
        }
      ],
      "services": {
        "appinvite_service": {
          "other_platform_oauth_client": [
            {
              "client_id": "147749855569-fpg9pu9jr811nn9rt8ud0a4sgq7kc2i4.apps.googleusercontent.com",
              "client_type": 3
            }
          ]
        }
      }
    }
  ],
  "configuration_version": "1"
}